<svg width="24" height="24" viewBox="0 0 24 24" fill="none" xmlns="http://www.w3.org/2000/svg">
<path fill-rule="evenodd" clip-rule="evenodd" d="M0.75 8.25C0.75 5.48857 2.98857 3.25 5.75 3.25H18.25C21.0114 3.25 23.25 5.48857 23.25 8.25V18.25C23.25 21.0114 21.0114 23.25 18.25 23.25H5.75C2.98857 23.25 0.75 21.0114 0.75 18.25V8.25ZM5.75 5.75C4.36929 5.75 3.25 6.86929 3.25 8.25V18.25C3.25 19.6307 4.36929 20.75 5.75 20.75H18.25C19.6308 20.75 20.75 19.6307 20.75 18.25V8.25C20.75 6.86929 19.6308 5.75 18.25 5.75H5.75Z" fill="#146BFF"/>
<path fill-rule="evenodd" clip-rule="evenodd" d="M7 0.75C7.69035 0.75 8.25 1.30965 8.25 2V4.5C8.25 5.19035 7.69035 5.75 7 5.75C6.30965 5.75 5.75 5.19035 5.75 4.5V2C5.75 1.30965 6.30965 0.75 7 0.75Z" fill="#146BFF"/>
<path fill-rule="evenodd" clip-rule="evenodd" d="M17 0.75C17.6904 0.75 18.25 1.30965 18.25 2V4.5C18.25 5.19035 17.6904 5.75 17 5.75C16.3096 5.75 15.75 5.19035 15.75 4.5V2C15.75 1.30965 16.3096 0.75 17 0.75Z" fill="#146BFF"/>
<path d="M8.25 9.5C8.25 10.1904 7.69035 10.75 7 10.75C6.30965 10.75 5.75 10.1904 5.75 9.5C5.75 8.80965 6.30965 8.25 7 8.25C7.69035 8.25 8.25 8.80965 8.25 9.5Z" fill="#146BFF"/>
<path d="M13.25 9.5C13.25 10.1904 12.6904 10.75 12 10.75C11.3096 10.75 10.75 10.1904 10.75 9.5C10.75 8.80965 11.3096 8.25 12 8.25C12.6904 8.25 13.25 8.80965 13.25 9.5Z" fill="#146BFF"/>
<path d="M18.25 9.5C18.25 10.1904 17.6904 10.75 17 10.75C16.3096 10.75 15.75 10.1904 15.75 9.5C15.75 8.80965 16.3096 8.25 17 8.25C17.6904 8.25 18.25 8.80965 18.25 9.5Z" fill="#146BFF"/>
<path d="M8.25 14.5C8.25 15.1904 7.69035 15.75 7 15.75C6.30965 15.75 5.75 15.1904 5.75 14.5C5.75 13.8096 6.30965 13.25 7 13.25C7.69035 13.25 8.25 13.8096 8.25 14.5Z" fill="#146BFF"/>
</svg>
