<?xml version="1.0" encoding="utf-8"?>
<!-- Generator: Adobe Illustrator 27.6.1, SVG Export Plug-In . SVG Version: 6.00 Build 0)  -->
<svg version="1.1" id="Layer_1" xmlns="http://www.w3.org/2000/svg" xmlns:xlink="http://www.w3.org/1999/xlink" x="0px" y="0px"
	 viewBox="0 0 3062.4 739.1" style="enable-background:new 0 0 3062.4 739.1;" xml:space="preserve">
<style type="text/css">
	.st0{fill:#02A7E9;}
	.st1{fill:#146BFF;}
	.st2{enable-background:new    ;}
</style>
<path class="st0" d="M635.9,136.9c-25,20-50,39.9-75.1,59.9c-3.7,2.9-7.3,5.9-11,8.8c20.2,5.4,40.3,10.6,60.5,16
	c-11.4-34.7-22.8-69.5-34.2-104.2c-1.6-5-3.3-10-4.9-15c-5.9-18-25.3-31.5-44.5-25.3c-18,5.8-31.7,25.3-25.3,44.5
	c11.4,34.7,22.8,69.5,34.2,104.2c1.6,5,3.3,10,4.9,15c4,12.2,12.7,21.8,25.3,25.3c13.5,3.7,24.8-1,35.2-9.3c25-20,50-39.9,75.1-59.9
	c3.7-2.9,7.3-5.9,11-8.8c6.8-5.4,10.6-17.4,10.6-25.6c0-8.9-3.9-19.5-10.6-25.6c-6.9-6.3-16-11.1-25.6-10.6
	C651.3,126.8,643.9,130.6,635.9,136.9z"/>
<path class="st0" d="M167.1,178.4c26.9,25.5,53.9,51.1,80.8,76.6c5.4-20.2,10.6-40.4,16-60.5c-42.3,12.1-84.6,24.2-126.9,36.3
	c-6,1.7-12.1,3.5-18.1,5.2c-18.2,5.2-31.3,25.8-25.3,44.5c6,18.6,25,30.9,44.5,25.3c42.3-12.1,84.6-24.2,126.9-36.3
	c6-1.7,12.1-3.5,18.1-5.2c25.6-7.3,36.1-41.5,16-60.5c-26.9-25.5-53.9-51.1-80.8-76.6c-13.8-13-37.7-14.6-51.2,0
	C154.1,141.2,152.4,164.4,167.1,178.4z"/>
<path class="st1" d="M391.5,66.7c-0.5,37-1.1,74.1-1.6,111.1c18.1-10.4,36.3-20.9,54.5-31.2c-39.2-19.9-78.4-39.8-117.6-59.8
	c-5.6-2.9-11.2-5.7-16.8-8.6c-16.8-8.6-40.1-5-49.5,13c-8.7,16.5-5,40.4,13,49.5c39.1,19.8,78.3,39.8,117.5,59.8
	c5.6,2.9,11.2,5.7,16.8,8.6c24.3,12.3,54-2.7,54.5-31.2c0.5-37,1.1-74.1,1.6-111.1c0.3-19-16.8-37.1-36.2-36.2
	C407.8,31.3,391.7,46.3,391.5,66.7z"/>
<path class="st1" d="M753.7,339c-32.9,0.2-65.8,0.4-98.7,0.6c-4.8,0-9.5,0.1-14.3,0.1c10.4,18.1,20.8,36.3,31.2,54.5
	c20.1-34.4,40.3-68.8,60.3-103.1c2.9-4.9,5.8-9.9,8.7-14.7c9.6-16.3,4.3-40.4-13-49.5c-17.4-9.2-39.3-4.5-49.5,13
	c-20.1,34.4-40.2,68.8-60.3,103.1c-2.9,4.9-5.8,9.9-8.7,14.7c-13.8,23.6,3.7,54.7,31.2,54.5c32.9-0.2,65.8-0.4,98.7-0.6
	c4.8,0,9.5-0.1,14.3-0.1c19-0.1,37.1-16.6,36.2-36.2C789.1,355.7,774.1,338.9,753.7,339z"/>
<path class="st1" d="M90,407.9c32.9,0.4,65.8,0.8,98.7,1.2c4.8,0.1,9.5,0.1,14.3,0.2c-10.4-18.1-20.8-36.3-31.2-54.5
	c-20.8,34-41.4,68-62.2,102c-3,4.9-6,9.7-8.9,14.6c-9.9,16.2-4.1,40.5,13,49.5c17.6,9.3,39,4.3,49.5-13c20.8-34,41.4-68,62.2-102
	c3-4.9,6-9.7,8.9-14.6c14.6-23.8-4.3-54.2-31.2-54.5c-32.9-0.4-65.8-0.8-98.7-1.2c-4.8-0.1-9.5-0.1-14.3-0.2
	c-19-0.3-37.1,16.9-36.2,36.2C54.6,391.4,69.6,407.6,90,407.9z"/>
<path class="st0" d="M211.7,607.8c23.1-23.5,46.3-46.9,69.4-70.4c3.3-3.3,6.6-6.7,9.9-10c-20.2-5.4-40.3-10.6-60.5-16
	c10,38.6,20.2,77.1,30.2,115.6c1.4,5.5,2.9,11,4.3,16.5c4.8,18.3,26.1,31.2,44.5,25.3c18.9-6.1,30.5-24.9,25.3-44.5
	c-10-38.6-20.2-77.1-30.2-115.6c-1.4-5.5-2.9-11-4.3-16.5c-6.9-26.3-41.5-35.2-60.5-16c-23.1,23.5-46.3,46.9-69.4,70.4
	c-3.3,3.3-6.6,6.7-9.9,10c-13.4,13.5-14.5,38,0,51.2C174.9,621,197.5,622.2,211.7,607.8z"/>
<path class="st1" d="M452.1,676.1c0.2-32.9,0.3-65.8,0.4-98.7c0-4.8,0-9.5,0.1-14.4c-18.1,10.4-36.3,20.9-54.5,31.2
	c38.2,19.5,76.4,38.9,114.5,58.4c5.4,2.7,10.8,5.5,16.3,8.3c16.8,8.6,40.1,4.9,49.5-13c8.8-16.5,5-40.4-13-49.5
	c-38.2-19.5-76.4-38.9-114.5-58.4c-5.4-2.7-10.8-5.5-16.3-8.3c-11.7-6-24.8-6.8-36.5,0c-11.1,6.5-17.9,18.5-18,31.2
	c-0.2,32.9-0.3,65.8-0.4,98.7c0,4.8,0,9.5-0.1,14.4c-0.1,19,16.7,37.1,36.2,36.2C435.6,711.4,452,696.4,452.1,676.1z"/>
<path class="st0" d="M684.2,566.4c-29.4-26.5-58.7-53-88.1-79.4c-5.4,20.2-10.6,40.4-16,60.5c43.1-12.2,86-24.3,129.1-36.5
	c6.1-1.7,12.3-3.5,18.5-5.2c18.2-5.2,31.3-25.9,25.3-44.5s-25-30.8-44.5-25.3c-43.1,12.2-86,24.3-129.1,36.5
	c-6.1,1.7-12.3,3.5-18.5,5.2c-25.1,7.2-36.6,41.9-16,60.5c29.4,26.5,58.7,52.9,88.1,79.4c14,12.7,37.5,14.9,51.2,0
	C696.9,603.7,699.2,579.9,684.2,566.4z"/>
<g class="st2">
	<path d="M912.3,224.6h41.3v285.1h-41.3V224.6z"/>
	<path d="M1099.4,477.7c30.8,0,48-11.3,57.3-32.8l33.9,21.5c-15.6,27.3-43.3,48-92.4,48c-64.7,0-107.6-46-107.6-107.2
		c0-59.7,46.4-107.6,104.5-107.6c63.6,0,103,49.9,103,103c0,7-0.4,14.4-0.8,18.3h-165.8C1037.8,455.9,1064.7,477.7,1099.4,477.7z
		 M1157.6,389.2c-5.5-34.7-29.2-56.2-60.8-56.2c-32,0-58.5,20.7-64.7,56.2H1157.6z"/>
	<path d="M1425.1,382.9v126.8h-41.3V390.3c0-33.9-20.3-54.2-53-53.8c-30.8,0-53.4,22.6-53.8,48v125.2h-41.3V304.1h39v26.1
		c14-17.9,37.4-30.8,67.9-30.8C1393.9,299.5,1425.1,332.6,1425.1,382.9z"/>
	<path d="M1674.3,224.6v285.1h-38.2v-32c-16,23-41.3,36.7-72.5,36.7c-58.9,0-101.4-46-101.4-107.6c0-60.8,41.7-106.9,100.2-106.9
		c29.6,0,54.2,12.1,70.6,32.8v-108H1674.3z M1634.5,406.7c0-41.3-26.5-70.6-65.9-70.6c-37.4,0-65.5,30.4-65.5,70.6
		c0,41,27.7,71,65.5,71C1607.6,477.7,1634.5,448.4,1634.5,406.7z"/>
	<path d="M1715.6,239.8c0-17.2,13.3-29.6,30-29.6c16.8,0,30,12.5,30,29.6c0,17.2-13.3,28.9-30,28.9
		C1728.9,268.7,1715.6,257,1715.6,239.8z M1725,304.1h41.3v205.5H1725V304.1z"/>
	<path d="M2006.2,382.9v126.8h-41.3V390.3c0-33.9-20.3-54.2-53-53.8c-30.8,0-53.4,22.6-53.8,48v125.2h-41.3V304.1h39v26.1
		c14-17.9,37.4-30.8,67.9-30.8C1975,299.5,2006.2,332.6,2006.2,382.9z"/>
	<path d="M2255.4,304.1v177.4c0,61.6-40.2,102.6-108,102.6c-54.2,0-86.6-24.2-99.8-62l35.1-13.7c9.8,27.3,33.2,41,65.1,41
		c42.9,0,69.4-25,69.4-64.4v-16.4c-15.6,23-40.6,37.4-72.5,37.4c-58.9,0-101.4-45.2-101.4-103c0-57.3,42.9-103.3,101.4-103.3
		c32,0,56.9,14,72.5,37v-32.8H2255.4z M2214.8,405.2c0-39.8-26.9-69-65.1-69c-37.4,0-65.5,30-65.5,69c0,39.4,27.7,69,65.1,69
		C2187.5,474.2,2214.8,445.3,2214.8,405.2z"/>
	<path d="M2579.5,382.9v126.8h-41.3V390.3c0-33.9-20.3-54.2-53-53.8c-30.8,0-53.4,22.6-53.8,48v125.2h-41.3V224.6h41.3v102.6
		c14-16,36.7-27.7,65.5-27.7C2548.3,299.5,2579.5,332.6,2579.5,382.9z"/>
	<path d="M2828.7,304.1v205.5h-38.2v-33.5c-15.6,23.8-40.6,38.2-72.5,38.2c-58.9,0-101.4-46-101.4-107.6
		c0-60.8,42.9-104.5,101.4-104.5c32,0,56.9,13.3,72.5,36.7v-34.7H2828.7z M2788.9,406.7c0-41.3-26.5-70.6-65.9-70.6
		c-37.4,0-65.5,30.4-65.5,70.6c0,41,27.7,71,65.5,71C2762,477.7,2788.9,448.4,2788.9,406.7z"/>
	<path d="M2895.4,437.9v-98.3h-36.7v-35.5h19.9c13.3,0,19.1-6.6,19.1-19.9v-33.1h40.2v53h57.3v35.5h-58.9v94
		c0,25.7,13.6,39.8,38.2,39.8h23v36.3h-31.2C2919.9,509.7,2895.4,482,2895.4,437.9z"/>
</g>
</svg>
