<svg width="129" height="61" viewBox="0 0 129 61" fill="none" xmlns="http://www.w3.org/2000/svg">
<path d="M28.2786 35.5321L1 29.0519V57C1 59.2091 2.79086 61 5 61H122.999C125.208 61 126.999 59.2091 126.999 57V1L114.422 18.7967C113.391 20.2547 111.519 20.8533 109.834 20.2638L95.0521 15.0922C93.5791 14.5768 91.9408 14.9652 90.8559 16.0871L80.7565 26.5301C79.3609 27.9731 77.1119 28.1582 75.4992 26.9628L56.9874 13.241C55.3619 12.0362 53.0927 12.2348 51.7013 13.7038L32.1073 34.391C31.1259 35.4271 29.667 35.8619 28.2786 35.5321Z" fill="url(#paint0_linear_225_5978)"/>
<path d="M1 30.3647L28.1974 37.1279C29.6285 37.4838 31.1394 37.0233 32.1288 35.9298L51.651 14.3539C53.0546 12.8026 55.4164 12.5949 57.0692 13.8774L75.4179 28.1148C77.0581 29.3875 79.3993 29.1938 80.8081 27.6689L90.8261 16.8254C91.9219 15.6393 93.6234 15.2284 95.1397 15.7837L109.742 21.1314C111.468 21.7637 113.404 21.1375 114.432 19.6135L126.999 1" stroke="#F06E25" stroke-width="3"/>
<defs>
<linearGradient id="paint0_linear_225_5978" x1="78.0848" y1="-4.64706" x2="78.0848" y2="61" gradientUnits="userSpaceOnUse">
<stop stop-color="#F06E25" stop-opacity="0.41"/>
<stop offset="1" stop-color="#D9D9D9" stop-opacity="0"/>
<stop offset="1" stop-color="#FFEDE3" stop-opacity="0"/>
</linearGradient>
</defs>
</svg>
