<svg width="245" height="148" viewBox="0 0 245 148" fill="none" xmlns="http://www.w3.org/2000/svg">
<mask id="mask0_225_7967" style="mask-type:alpha" maskUnits="userSpaceOnUse" x="0" y="0" width="245" height="138">
<path fill-rule="evenodd" clip-rule="evenodd" d="M243 138C243.859 132.155 244.186 128.176 244.186 122.093C244.186 54.6629 189.523 0 122.093 0C54.6629 0 0 54.6629 0 122.093C0 128.176 0.141001 132.155 1 138H243ZM229.725 136.745C230.371 131.953 230.705 127.062 230.705 122.094C230.705 62.11 182.078 13.4835 122.094 13.4835C62.1104 13.4835 13.4839 62.11 13.4839 122.094C13.4839 127.062 13.8175 131.953 14.4636 136.745H229.725Z" fill="#D9D9D9"/>
</mask>
<g mask="url(#mask0_225_7967)">
<path d="M25.0146 82.5489L16.5347 126.463C15.7807 130.367 13.4525 133.789 10.0974 135.924L9.96125 136.011C8.20772 137.127 5.98299 137.19 4.1695 136.174C0.205887 133.954 -2.24892 129.766 -2.24892 125.223V74.0863C-2.24892 69.0725 -0.365753 64.2416 3.02753 60.5505L49.3319 10.1829C52.697 6.52238 57.3051 4.24667 62.2572 3.79962L116.445 -1.09221C121.252 -1.52618 125.529 1.95271 126.082 6.74773C126.167 7.48109 126.067 8.224 125.793 8.90942L125.603 9.38542C124.098 13.1464 120.921 15.9868 117.015 17.0617L84.4282 26.0307C83.0747 26.4032 81.7641 26.9172 80.5183 27.5642L55.3796 40.6184C52.5714 42.0767 50.1493 44.1805 48.3123 46.7569L28.3673 74.73C26.7019 77.0657 25.5585 79.7323 25.0146 82.5489Z" fill="#4642F9"/>
<path d="M177.942 22.9492L177.391 23.384C173.958 26.0945 169.408 26.9376 165.232 25.6373L135.321 16.3255C133.296 15.6951 131.503 14.4176 130.23 12.7209C127.614 9.23291 128.244 4.22935 131.7 1.571C133.93 -0.144326 136.782 -0.835896 139.55 -0.33263L159.921 3.37117L174.726 10.2636C178.693 12.1102 180.695 16.5954 179.421 20.7815C179.161 21.638 178.644 22.3944 177.942 22.9492Z" fill="#F06E25"/>
<path d="M182.018 33.707C181.632 32.3428 181.345 30.8612 181.132 29.4133C180.466 24.8775 184.015 21.0301 188.581 20.615C191.405 20.3583 194.249 20.7827 196.875 21.8525L205.93 25.5417C210.545 27.4217 214.292 30.9566 216.437 35.4542L222.174 47.484C223.78 50.8516 223.781 54.7639 222.177 58.1325C221.409 59.7463 219.98 60.9489 218.259 61.4309L217.67 61.5956C213.789 62.6823 209.633 62.1858 206.286 59.9398C198.62 54.7942 185.048 44.4181 182.018 33.707Z" fill="#F9C91F"/>
<path d="M229.278 127.552C227.247 114.465 222.701 86.3294 219.469 74.9038C217.541 68.0857 224.957 62.7784 231.432 65.6561L231.858 65.8451C233.082 66.3893 234.368 66.783 235.687 67.0175C244.112 68.5153 250.011 76.1814 249.3 84.7088L245.901 125.495C245.548 129.731 242.538 133.273 238.414 134.304L238.305 134.331C237.983 134.412 237.653 134.452 237.322 134.452C233.305 134.452 229.894 131.521 229.278 127.552Z" fill="#25D882"/>
</g>
<path d="M228.923 82.178L115.047 109.179L110.352 125.615L123.265 133.833L228.923 82.178Z" fill="#146BFF"/>
<path d="M123.265 133.833L228.923 82.178L110.352 125.615L123.265 133.833Z" fill="#B9D5FF"/>
<g filter="url(#filter0_d_225_7967)">
<circle cx="120.918" cy="120.919" r="17.6096" fill="#146BFF"/>
</g>
<circle cx="120.92" cy="120.919" r="9.78309" fill="white"/>
<defs>
<filter id="filter0_d_225_7967" x="97.3086" y="100.31" width="47.2188" height="47.2192" filterUnits="userSpaceOnUse" color-interpolation-filters="sRGB">
<feFlood flood-opacity="0" result="BackgroundImageFix"/>
<feColorMatrix in="SourceAlpha" type="matrix" values="0 0 0 0 0 0 0 0 0 0 0 0 0 0 0 0 0 0 127 0" result="hardAlpha"/>
<feOffset dy="3"/>
<feGaussianBlur stdDeviation="3"/>
<feComposite in2="hardAlpha" operator="out"/>
<feColorMatrix type="matrix" values="0 0 0 0 0 0 0 0 0 0 0 0 0 0 0 0 0 0 0.14 0"/>
<feBlend mode="normal" in2="BackgroundImageFix" result="effect1_dropShadow_225_7967"/>
<feBlend mode="normal" in="SourceGraphic" in2="effect1_dropShadow_225_7967" result="shape"/>
</filter>
</defs>
</svg>
