<svg width="20" height="26" viewBox="0 0 20 26" fill="none" xmlns="http://www.w3.org/2000/svg">
<g clip-path="url(#clip0_225_5663)">
<path d="M13 0V6.5H19.5L13 0ZM11.375 6.5V0H2.4375C1.09129 0 0 1.09129 0 2.4375V23.5625C0 24.9082 1.09129 26 2.4375 26H17.0625C18.4087 26 19.5 24.9087 19.5 23.5625V8.125H13.0457C12.1012 8.125 11.375 7.39883 11.375 6.5Z" fill="#4A88E6"/>
</g>
<defs>
<clipPath id="clip0_225_5663">
<rect width="19.5" height="26" fill="white"/>
</clipPath>
</defs>
</svg>
