<svg width="20" height="20" viewBox="0 0 20 20" fill="none" xmlns="http://www.w3.org/2000/svg">
<path fill-rule="evenodd" clip-rule="evenodd" d="M17.5696 13.5966C17.4891 13.4352 17.3244 13.3333 17.1439 13.3333H2.85818C2.67771 13.3333 2.51295 13.4352 2.43247 13.5966L1.48009 15.5013C1.40628 15.649 1.4139 15.8242 1.50057 15.9647C1.58771 16.1052 1.74057 16.1904 1.9058 16.1904H18.0963C18.2615 16.1904 18.4144 16.1052 18.5015 15.9647C18.5882 15.8242 18.5958 15.649 18.522 15.5013L17.5696 13.5966ZM16.8496 14.2856L17.3258 15.238H2.67628L3.15247 14.2856H16.8496Z" fill="#146BFF"/>
<path fill-rule="evenodd" clip-rule="evenodd" d="M18.5725 15.7142C18.5725 15.4514 18.3592 15.238 18.0964 15.238H1.90588C1.64302 15.238 1.42969 15.4514 1.42969 15.7142V17.619C1.42969 17.8818 1.64302 18.0952 1.90588 18.0952H18.0964C18.3592 18.0952 18.5725 17.8818 18.5725 17.619V15.7142ZM17.6202 16.1904V17.1428H2.38207V16.1904H17.6202Z" fill="#146BFF"/>
<path fill-rule="evenodd" clip-rule="evenodd" d="M5.23996 8.09533C5.23996 7.83247 5.02662 7.61914 4.76377 7.61914H2.859C2.59615 7.61914 2.38281 7.83247 2.38281 8.09533V13.8096C2.38281 14.0725 2.59615 14.2858 2.859 14.2858H4.76377C5.02662 14.2858 5.23996 14.0725 5.23996 13.8096V8.09533ZM4.28757 8.57152V13.3334H3.33519V8.57152H4.28757Z" fill="#146BFF"/>
<path fill-rule="evenodd" clip-rule="evenodd" d="M17.6189 8.09533C17.6189 7.83247 17.4055 7.61914 17.1427 7.61914H15.2379C14.9751 7.61914 14.7617 7.83247 14.7617 8.09533V13.8096C14.7617 14.0725 14.9751 14.2858 15.2379 14.2858H17.1427C17.4055 14.2858 17.6189 14.0725 17.6189 13.8096V8.09533ZM16.6665 8.57152V13.3334H15.7141V8.57152H16.6665Z" fill="#146BFF"/>
<path fill-rule="evenodd" clip-rule="evenodd" d="M11.4275 8.09533C11.4275 7.83247 11.2141 7.61914 10.9513 7.61914H9.0465C8.78365 7.61914 8.57031 7.83247 8.57031 8.09533V13.8096C8.57031 14.0725 8.78365 14.2858 9.0465 14.2858H10.9513C11.2141 14.2858 11.4275 14.0725 11.4275 13.8096V8.09533ZM10.4751 8.57152V13.3334H9.52269V8.57152H10.4751Z" fill="#146BFF"/>
<path fill-rule="evenodd" clip-rule="evenodd" d="M18.5725 6.19055C18.5725 5.92769 18.3592 5.71436 18.0964 5.71436H1.90588C1.64302 5.71436 1.42969 5.92769 1.42969 6.19055V8.09531C1.42969 8.35817 1.64302 8.5715 1.90588 8.5715H18.0964C18.3592 8.5715 18.5725 8.35817 18.5725 8.09531V6.19055ZM17.6202 6.66674V7.61912H2.38207V6.66674H17.6202Z" fill="#146BFF"/>
<path fill-rule="evenodd" clip-rule="evenodd" d="M10.2429 1.49668C10.0924 1.40573 9.90384 1.40573 9.75336 1.49668L2.6105 5.78239C2.42669 5.8924 2.33907 6.11144 2.39622 6.31763C2.45336 6.52382 2.64146 6.66668 2.85526 6.66668H17.141C17.3548 6.66668 17.5429 6.52382 17.6 6.31763C17.6572 6.11144 17.5696 5.8924 17.3857 5.78239L10.2429 1.49668ZM9.99812 2.46001L15.4219 5.7143H4.57431L9.99812 2.46001Z" fill="#146BFF"/>
</svg>
