<svg width="2945" height="683" viewBox="0 0 2945 683" fill="none" xmlns="http://www.w3.org/2000/svg">
<path d="M582.9 106.9C557.9 126.9 532.9 146.8 507.8 166.8C504.1 169.7 500.5 172.7 496.8 175.6C517 181 537.1 186.2 557.3 191.6C545.9 156.9 534.5 122.1 523.1 87.4C521.5 82.4 519.8 77.4 518.2 72.4C512.3 54.4 492.9 40.9 473.7 47.1C455.7 52.9 442 72.4 448.4 91.6C459.8 126.3 471.2 161.1 482.6 195.8C484.2 200.8 485.9 205.8 487.5 210.8C491.5 223 500.2 232.6 512.8 236.1C526.3 239.8 537.6 235.1 548 226.8C573 206.8 598 186.9 623.1 166.9C626.8 164 630.4 161 634.1 158.1C640.9 152.7 644.7 140.7 644.7 132.5C644.7 123.6 640.8 113 634.1 106.9C627.2 100.6 618.1 95.8 608.5 96.3C598.3 96.8 590.9 100.6 582.9 106.9Z" fill="#02A7E9"/>
<path d="M114.1 148.4C141 173.9 168 199.5 194.9 225C200.3 204.8 205.5 184.6 210.9 164.5C168.6 176.6 126.3 188.7 84 200.8C78 202.5 71.9 204.3 65.9 206C47.7 211.2 34.6 231.8 40.6 250.5C46.6 269.1 65.6 281.4 85.1 275.8C127.4 263.7 169.7 251.6 212 239.5C218 237.8 224.1 236 230.1 234.3C255.7 227 266.2 192.8 246.1 173.8C219.2 148.3 192.2 122.7 165.3 97.2C151.5 84.2 127.6 82.6 114.1 97.2C101.1 111.2 99.4 134.4 114.1 148.4Z" fill="#02A7E9"/>
<path d="M338.5 36.7C338 73.7 337.4 110.8 336.9 147.8C355 137.4 373.2 126.9 391.4 116.6C352.2 96.7 313 76.8 273.8 56.8C268.2 53.9 262.6 51.1 257 48.2C240.2 39.6 216.9 43.2 207.5 61.2C198.8 77.7 202.5 101.6 220.5 110.7C259.6 130.5 298.8 150.5 338 170.5C343.6 173.4 349.2 176.2 354.8 179.1C379.1 191.4 408.8 176.4 409.3 147.9C409.8 110.9 410.4 73.8 410.9 36.8C411.2 17.8 394.1 -0.300033 374.7 0.599967C354.8 1.29997 338.7 16.3 338.5 36.7Z" fill="#146BFF"/>
<path d="M700.7 309C667.8 309.2 634.9 309.4 602 309.6C597.2 309.6 592.5 309.7 587.7 309.7C598.1 327.8 608.5 346 618.9 364.2C639 329.8 659.2 295.4 679.2 261.1C682.1 256.2 685 251.2 687.9 246.4C697.5 230.1 692.2 206 674.9 196.9C657.5 187.7 635.6 192.4 625.4 209.9C605.3 244.3 585.2 278.7 565.1 313C562.2 317.9 559.3 322.9 556.4 327.7C542.6 351.3 560.1 382.4 587.6 382.2C620.5 382 653.4 381.8 686.3 381.6C691.1 381.6 695.8 381.5 700.6 381.5C719.6 381.4 737.7 364.9 736.8 345.3C736.1 325.7 721.1 308.9 700.7 309Z" fill="#146BFF"/>
<path d="M37 377.9C69.9 378.3 102.8 378.7 135.7 379.1C140.5 379.2 145.2 379.2 150 379.3C139.6 361.2 129.2 343 118.8 324.8C98 358.8 77.4 392.8 56.6 426.8C53.6 431.7 50.6 436.5 47.7 441.4C37.8 457.6 43.6 481.9 60.7 490.9C78.3 500.2 99.7 495.2 110.2 477.9C131 443.9 151.6 409.9 172.4 375.9C175.4 371 178.4 366.2 181.3 361.3C195.9 337.5 177 307.1 150.1 306.8C117.2 306.4 84.3 306 51.4 305.6C46.6 305.5 41.9 305.5 37.1 305.4C18.1 305.1 1.62125e-05 322.3 0.900016 341.6C1.60002 361.4 16.6 377.6 37 377.9Z" fill="#146BFF"/>
<path d="M158.7 577.8C181.8 554.3 205 530.9 228.1 507.4C231.4 504.1 234.7 500.7 238 497.4C217.8 492 197.7 486.8 177.5 481.4C187.5 520 197.7 558.5 207.7 597C209.1 602.5 210.6 608 212 613.5C216.8 631.8 238.1 644.7 256.5 638.8C275.4 632.7 287 613.9 281.8 594.3C271.8 555.7 261.6 517.2 251.6 478.7C250.2 473.2 248.7 467.7 247.3 462.2C240.4 435.9 205.8 427 186.8 446.2C163.7 469.7 140.5 493.1 117.4 516.6C114.1 519.9 110.8 523.3 107.5 526.6C94.1 540.1 93 564.6 107.5 577.8C121.9 591 144.5 592.2 158.7 577.8Z" fill="#02A7E9"/>
<path d="M399.1 646.1C399.3 613.2 399.4 580.3 399.5 547.4C399.5 542.6 399.5 537.9 399.6 533C381.5 543.4 363.3 553.9 345.1 564.2C383.3 583.7 421.5 603.1 459.6 622.6C465 625.3 470.4 628.1 475.9 630.9C492.7 639.5 516 635.8 525.4 617.9C534.2 601.4 530.4 577.5 512.4 568.4C474.2 548.9 436 529.5 397.9 510C392.5 507.3 387.1 504.5 381.6 501.7C369.9 495.7 356.8 494.9 345.1 501.7C334 508.2 327.2 520.2 327.1 532.9C326.9 565.8 326.8 598.7 326.7 631.6C326.7 636.4 326.7 641.1 326.6 646C326.5 665 343.3 683.1 362.8 682.2C382.6 681.4 399 666.4 399.1 646.1Z" fill="#146BFF"/>
<path d="M631.2 536.4C601.8 509.9 572.5 483.4 543.1 457C537.7 477.2 532.5 497.4 527.1 517.5C570.2 505.3 613.1 493.2 656.2 481C662.3 479.3 668.5 477.5 674.7 475.8C692.9 470.6 706 449.9 700 431.3C694 412.7 675 400.5 655.5 406C612.4 418.2 569.5 430.3 526.4 442.5C520.3 444.2 514.1 446 507.9 447.7C482.8 454.9 471.3 489.6 491.9 508.2C521.3 534.7 550.6 561.1 580 587.6C594 600.3 617.5 602.5 631.2 587.6C643.9 573.7 646.2 549.9 631.2 536.4Z" fill="#02A7E9"/>
<path d="M859.253 495.677V210.586H900.593V495.677H859.253Z" fill="white"/>
<path d="M978.73 406.756C984.97 441.856 1011.88 463.696 1046.59 463.696C1077.4 463.696 1094.56 452.387 1103.92 430.937L1137.85 452.386C1122.25 479.686 1094.56 500.357 1045.42 500.357C980.68 500.357 937.78 454.336 937.78 393.106C937.78 333.436 984.19 285.466 1042.3 285.466C1105.87 285.466 1145.26 335.386 1145.26 388.426C1145.26 395.447 1144.87 402.856 1144.48 406.756H978.73ZM979.12 375.166H1104.7C1099.24 340.456 1075.45 319.007 1043.86 319.007C1011.88 319.007 985.36 339.676 979.12 375.166Z" fill="white"/>
<path d="M1289.46 285.466C1340.94 285.466 1372.14 318.617 1372.14 368.926V495.677H1330.8V376.337C1330.8 342.407 1310.52 322.126 1277.76 322.516C1246.95 322.516 1224.33 345.137 1223.94 370.486V495.677H1182.6V290.146H1221.6V316.276C1235.64 298.336 1259.04 285.466 1289.46 285.466Z" fill="white"/>
<path d="M1580.15 210.586H1621.49V495.677H1583.27V463.696C1567.28 486.706 1541.93 500.357 1510.73 500.357C1451.84 500.357 1409.33 454.336 1409.33 392.717C1409.33 331.876 1451.06 285.856 1509.56 285.856C1539.2 285.856 1563.77 297.946 1580.15 318.616V210.586ZM1515.8 463.696C1554.8 463.696 1581.71 434.447 1581.71 392.717C1581.71 351.376 1555.19 322.126 1515.8 322.126C1478.36 322.126 1450.28 352.547 1450.28 392.717C1450.28 433.667 1477.97 463.696 1515.8 463.696Z" fill="white"/>
<path d="M1692.68 254.656C1675.91 254.656 1662.65 242.957 1662.65 225.796C1662.65 208.636 1675.91 196.156 1692.68 196.156C1709.45 196.156 1722.71 208.636 1722.71 225.796C1722.71 242.957 1709.45 254.656 1692.68 254.656ZM1672.01 495.677V290.146H1713.35V495.677H1672.01Z" fill="white"/>
<path d="M1870.65 285.466C1922.13 285.466 1953.33 318.617 1953.33 368.926V495.677H1911.99V376.337C1911.99 342.407 1891.71 322.126 1858.95 322.516C1828.14 322.516 1805.52 345.137 1805.13 370.486V495.677H1763.79V290.146H1802.79V316.276C1816.83 298.336 1840.23 285.466 1870.65 285.466Z" fill="white"/>
<path d="M2164.46 290.146H2202.68V467.596C2202.68 529.216 2162.51 570.167 2094.65 570.167C2040.44 570.167 2008.07 545.987 1994.81 508.156L2029.91 494.506C2039.66 521.806 2063.06 535.456 2095.04 535.456C2137.94 535.456 2164.46 510.497 2164.46 471.107V454.727C2148.86 477.737 2123.9 492.167 2091.92 492.167C2033.03 492.167 1990.52 446.926 1990.52 389.206C1990.52 331.876 2033.42 285.856 2091.92 285.856C2123.9 285.856 2148.86 299.896 2164.46 322.906V290.146ZM2096.6 460.187C2134.82 460.187 2162.12 431.327 2162.12 391.157C2162.12 351.377 2135.21 322.126 2096.99 322.126C2059.55 322.126 2031.47 352.156 2031.47 391.157C2031.47 430.547 2059.16 460.187 2096.6 460.187Z" fill="white"/>
<path d="M2443.85 285.466C2495.33 285.466 2526.53 318.617 2526.53 368.926V495.677H2485.19V376.337C2485.19 342.407 2464.91 322.126 2432.15 322.516C2401.34 322.516 2378.72 345.137 2378.33 370.486V495.677H2336.99V210.586H2378.33V313.156C2392.37 297.167 2414.99 285.466 2443.85 285.466Z" fill="white"/>
<path d="M2737.65 290.146H2775.87V495.677H2737.65V462.136C2722.05 485.926 2697.09 500.357 2665.11 500.357C2606.22 500.357 2563.71 454.336 2563.71 392.717C2563.71 331.876 2606.61 288.197 2665.11 288.197C2697.09 288.197 2722.05 301.456 2737.65 324.856V290.146ZM2670.18 463.696C2709.18 463.696 2736.09 434.447 2736.09 392.717C2736.09 351.376 2709.57 322.126 2670.18 322.126C2632.74 322.126 2604.66 352.547 2604.66 392.717C2604.66 433.667 2632.35 463.696 2670.18 463.696Z" fill="white"/>
<path d="M2913.36 495.677C2866.95 495.677 2842.38 467.986 2842.38 423.916V325.636H2805.72V290.146H2825.61C2838.87 290.146 2844.72 283.516 2844.72 270.257V237.106H2884.89V290.146H2942.22V325.636H2883.33V419.627C2883.33 445.367 2896.98 459.406 2921.55 459.406H2944.56V495.677H2913.36Z" fill="white"/>
</svg>
