<svg version="1.2" xmlns="http://www.w3.org/2000/svg" viewBox="0 0 300 300" width="300" height="300">
	<title>New Project</title>
	<style>
		.s0 { fill: #02a7e9 } 
		.s1 { fill: #146bff } 
	</style>
	<g id="Folder 1">
		<path id="Layer" class="s0" d="m237.4 53.8c-10.1 8.1-20.3 16.2-30.5 24.3-1.5 1.2-3 2.4-4.5 3.6 8.2 2.2 16.4 4.3 24.6 6.5-4.6-14.1-9.2-28.2-13.9-42.3-0.6-2.1-1.3-4.1-2-6.1-2.4-7.4-10.2-12.8-18-10.3-7.4 2.3-12.9 10.3-10.3 18.1 4.6 14.1 9.2 28.2 13.9 42.3 0.6 2.1 1.3 4.1 2 6.1 1.6 5 5.1 8.9 10.2 10.3 5.5 1.5 10.1-0.4 14.3-3.8 10.2-8.1 20.4-16.2 30.6-24.3 1.5-1.2 2.9-2.4 4.4-3.6 2.8-2.2 4.4-7.1 4.4-10.4 0-3.6-1.6-7.9-4.4-10.4-2.8-2.6-6.5-4.5-10.4-4.3-4.1 0.2-7.1 1.7-10.4 4.3z"/>
		<path id="Layer" class="s0" d="m46.9 70.7c10.9 10.3 21.9 20.7 32.8 31.1 2.2-8.2 4.3-16.4 6.5-24.6q-25.8 7.4-51.5 14.8c-2.5 0.6-5 1.4-7.4 2.1-7.4 2.1-12.7 10.5-10.3 18.1 2.5 7.5 10.2 12.5 18.1 10.2q25.8-7.3 51.6-14.7c2.4-0.7 4.9-1.4 7.3-2.1 10.4-3 14.7-16.9 6.5-24.6-10.9-10.4-21.9-20.8-32.8-31.2-5.6-5.2-15.3-5.9-20.8 0-5.3 5.7-6 15.2 0 20.9z"/>
		<path id="Layer" class="s1" d="m138.1 25.3c-0.2 15-0.4 30.1-0.7 45.1 7.4-4.2 14.8-8.5 22.2-12.7q-23.9-12.1-47.8-24.3c-2.3-1.2-4.6-2.3-6.8-3.5-6.9-3.5-16.3-2-20.1 5.3-3.6 6.7-2.1 16.4 5.2 20.1 15.9 8.1 31.9 16.2 47.8 24.3 2.3 1.2 4.5 2.4 6.8 3.5 9.9 5 22-1.1 22.2-12.6 0.2-15.1 0.4-30.2 0.6-45.2 0.1-7.7-6.8-15.1-14.7-14.7-8.1 0.3-14.6 6.4-14.7 14.7z"/>
		<path id="Layer" class="s1" d="m285.3 135.9q-20 0.2-40.1 0.3c-2 0-3.9 0-5.8 0q6.3 11.1 12.7 22.2c8.1-14 16.3-28 24.5-41.9 1.2-2 2.3-4.1 3.5-6 3.9-6.6 1.8-16.4-5.3-20.1-7-3.8-15.9-1.9-20.1 5.3q-12.2 20.9-24.5 41.9c-1.2 1.9-2.4 4-3.5 5.9-5.6 9.6 1.5 22.3 12.6 22.2q20.1-0.1 40.2-0.3c1.9 0 3.8 0 5.8 0 7.7 0 15.1-6.7 14.7-14.7-0.3-8-6.4-14.8-14.7-14.8z"/>
		<path id="Layer" class="s1" d="m15.6 163.9q20 0.3 40.1 0.5c1.9 0.1 3.8 0.1 5.8 0.1q-6.4-11-12.7-22.1c-8.5 13.8-16.8 27.6-25.3 41.4-1.2 2-2.4 4-3.6 5.9-4 6.6-1.7 16.5 5.3 20.2 7.1 3.7 15.8 1.7 20.1-5.3 8.5-13.8 16.8-27.7 25.3-41.5 1.2-2 2.4-3.9 3.6-5.9 5.9-9.7-1.7-22-12.7-22.2q-20-0.2-40.1-0.5c-1.9 0-3.9 0-5.8 0-7.7-0.2-15.1 6.8-14.7 14.7 0.3 8 6.4 14.6 14.7 14.7z"/>
		<path id="Layer" class="s0" d="m65 245.2c9.4-9.6 18.8-19.1 28.2-28.6 1.4-1.4 2.7-2.8 4.1-4.1-8.3-2.2-16.4-4.3-24.6-6.5 4 15.7 8.2 31.3 12.2 47 0.6 2.2 1.2 4.5 1.8 6.7 1.9 7.4 10.6 12.7 18.1 10.3 7.7-2.5 12.4-10.1 10.3-18.1-4.1-15.7-8.3-31.3-12.3-47-0.6-2.2-1.2-4.5-1.8-6.7-2.8-10.7-16.8-14.3-24.6-6.5-9.3 9.5-18.8 19.1-28.2 28.6-1.3 1.4-2.7 2.7-4 4.1-5.4 5.5-5.9 15.4 0 20.8 5.9 5.3 15 5.8 20.8 0z"/>
		<path id="Layer" class="s1" d="m162.7 272.9q0.1-20 0.2-40.1c0-1.9 0-3.8 0-5.8-7.3 4.2-14.7 8.5-22.1 12.7 15.5 7.9 31 15.8 46.5 23.7q3.3 1.6 6.6 3.4c6.9 3.5 16.3 2 20.2-5.3 3.5-6.7 2-16.4-5.3-20.1-15.5-8-31.1-15.8-46.6-23.8q-3.2-1.6-6.6-3.3c-4.7-2.5-10.1-2.8-14.8 0-4.5 2.6-7.3 7.5-7.3 12.6q-0.1 20.1-0.2 40.2c0 1.9 0 3.8 0 5.8-0.1 7.7 6.7 15.1 14.7 14.7 8-0.3 14.7-6.4 14.7-14.7z"/>
		<path id="Layer" class="s0" d="m257.1 228.4c-12-10.8-23.9-21.6-35.8-32.3-2.2 8.2-4.4 16.4-6.5 24.6 17.5-5 34.9-9.9 52.4-14.9 2.5-0.7 5-1.4 7.5-2.1 7.4-2.1 12.8-10.5 10.3-18.1-2.4-7.5-10.1-12.5-18.1-10.2-17.5 4.9-34.9 9.8-52.4 14.8-2.5 0.7-5 1.4-7.5 2.1-10.3 2.9-14.9 17-6.6 24.6 12 10.8 23.9 21.5 35.9 32.3 5.6 5.1 15.2 6 20.8 0 5.1-5.7 6.1-15.4 0-20.8z"/>
	</g>
</svg>