<svg width="9" height="10" viewBox="0 0 9 10" fill="none" xmlns="http://www.w3.org/2000/svg">
<path d="M0.501107 9.03326C0.519476 9.30879 0.757729 9.51726 1.03326 9.49889L5.52329 9.19956C5.79882 9.18119 6.00729 8.94294 5.98893 8.66741C5.97056 8.39187 5.7323 8.1834 5.45677 8.20177L1.46563 8.46785L1.19956 4.47671C1.18119 4.20118 0.942935 3.99271 0.667405 4.01107C0.391874 4.02944 0.183403 4.2677 0.201772 4.54323L0.501107 9.03326ZM7.62371 0.670748L0.623712 8.67075L1.37629 9.32925L8.37629 1.32925L7.62371 0.670748Z" fill="#C10606"/>
</svg>
