<svg width="26" height="26" viewBox="0 0 26 26" fill="none" xmlns="http://www.w3.org/2000/svg">
<path d="M20.3125 5.44375C17.55 5.44375 14.95 4.30625 13 2.4375C11.05 4.30625 8.45 5.44375 5.6875 5.44375C4.55 5.44375 3.49375 5.2 2.4375 4.875C2.4375 16.25 6.90625 20.8 13 23.5625C19.0938 20.8 23.5625 16.25 23.5625 4.875C22.5063 5.2 21.45 5.44375 20.3125 5.44375Z" stroke="white" stroke-width="2" stroke-miterlimit="10" stroke-linecap="round" stroke-linejoin="round"/>
<path d="M9.75 13L12.1875 15.4375L17.0625 10.5625" stroke="white" stroke-width="2" stroke-miterlimit="10" stroke-linecap="round" stroke-linejoin="round"/>
</svg>
