<svg width="9" height="17" viewBox="0 0 9 17" fill="none" xmlns="http://www.w3.org/2000/svg">
<path d="M8 1.49902L1 8.49902L8 15.499" stroke="#146BFF" stroke-width="2" stroke-linejoin="round"/>
</svg>
