<svg width="9" height="17" viewBox="0 0 9 17" fill="none" xmlns="http://www.w3.org/2000/svg">
<path d="M1 15.499L8 8.49902L1 1.49902" stroke="#146BFF" stroke-width="2" stroke-linejoin="round"/>
</svg>
