<svg width="20" height="20" viewBox="0 0 20 20" fill="none" xmlns="http://www.w3.org/2000/svg">
<path d="M17.2119 0.0185547H14.4402C14.1 0.0185547 13.8242 0.294347 13.8242 0.634501C13.8242 0.974655 14.1 1.25045 14.4402 1.25045H17.2119C18.061 1.25045 18.7518 1.94128 18.7518 2.79031V16.3411C18.7518 17.1902 18.061 17.881 17.2119 17.881H16.288C15.9479 17.881 15.6721 18.1568 15.6721 18.4969C15.6721 18.8371 15.9479 19.1129 16.288 19.1129H17.2119C18.7402 19.1129 19.9837 17.8694 19.9837 16.3411V2.79031C19.9837 1.26203 18.7402 0.0185547 17.2119 0.0185547Z" fill="#146BFF"/>
<path d="M6.43024 17.881H3.65848C2.80945 17.881 2.11861 17.1902 2.11861 16.3411V2.79031C2.11861 1.94128 2.80945 1.25045 3.65848 1.25045H4.5824C4.92255 1.25045 5.19834 0.974655 5.19834 0.634501C5.19834 0.294347 4.92255 0.0185547 4.5824 0.0185547H3.65848C2.13019 0.0185547 0.886719 1.26203 0.886719 2.79031V16.3411C0.886719 17.8694 2.13019 19.1129 3.65848 19.1129H6.43024C6.77039 19.1129 7.04618 18.8371 7.04618 18.4969C7.04618 18.1568 6.77039 17.881 6.43024 17.881Z" fill="#146BFF"/>
<path d="M14.128 12.3381C13.7878 12.3381 13.512 12.6139 13.512 12.9541V17.0107L5.01628 8.51493C4.77598 8.27432 4.3856 8.27432 4.1453 8.51493C3.90469 8.75538 3.90469 9.14546 4.1453 9.38591L12.641 17.8816H8.58444C8.24429 17.8816 7.9685 18.1574 7.9685 18.4976C7.9685 18.8377 8.24429 19.1135 8.58444 19.1135H14.128C14.1684 19.1135 14.2088 19.1093 14.2486 19.1014C14.2668 19.0978 14.2836 19.091 14.3011 19.0858C14.3221 19.0797 14.3432 19.0748 14.3635 19.0664C14.384 19.0579 14.4026 19.0463 14.4219 19.0357C14.4378 19.027 14.4543 19.02 14.4696 19.0098C14.5371 18.9647 14.5951 18.9067 14.6402 18.8392C14.6503 18.8241 14.6572 18.8078 14.6657 18.7921C14.6764 18.7726 14.6882 18.7539 14.6968 18.7331C14.7052 18.7129 14.71 18.6918 14.7161 18.671C14.7213 18.6533 14.7281 18.6365 14.7317 18.6182C14.7397 18.5784 14.7439 18.538 14.7439 18.4976V12.9541C14.7439 12.6139 14.4681 12.3381 14.128 12.3381Z" fill="#146BFF"/>
<path d="M6.73704 6.79397C7.07719 6.79397 7.35299 6.51817 7.35299 6.17802V2.12143L15.8487 10.6172C15.9689 10.7375 16.1266 10.7976 16.2842 10.7976C16.4418 10.7976 16.5996 10.7375 16.7197 10.6172C16.9603 10.3767 16.9603 9.98663 16.7197 9.74618L8.22397 1.25045H12.2806C12.6207 1.25045 12.8965 0.974655 12.8965 0.634501C12.8965 0.294347 12.6207 0.0185547 12.2806 0.0185547H6.73704C6.69659 0.0185547 6.65619 0.0228029 6.61636 0.0307165C6.59841 0.0342879 6.58183 0.0410173 6.56448 0.0461114C6.54334 0.0522957 6.52193 0.0571829 6.5014 0.0656793C6.48114 0.0740816 6.46281 0.0856231 6.44369 0.0960555C6.42756 0.104834 6.41081 0.111958 6.39536 0.122296C6.32786 0.16741 6.26987 0.225437 6.22478 0.292937C6.21472 0.307975 6.20784 0.324272 6.19925 0.339949C6.18856 0.359442 6.17677 0.378239 6.1682 0.398954C6.15983 0.419179 6.155 0.440289 6.14889 0.461135C6.14369 0.478766 6.13688 0.495627 6.13326 0.51388C6.12534 0.553692 6.12109 0.594068 6.12109 0.634501V6.17802C6.12109 6.51817 6.39689 6.79397 6.73704 6.79397Z" fill="#146BFF"/>
</svg>
